{
  "enableE2E": true,
  "host": "localhost",
  "port": 3030,
  "lightship": {
    "port": 4040
  },
  "promster": {
    "port": 5050
  },
  "paginate": {
    "default": 10,
    "max": 50
  },
  "outsidehost": "http://localhost:3000",
  "postgres": "postgres://nab:nab@localhost:5433/nab"
}
